{
	"cid": "ueOot1XhTyIffbNJzUfosc0wBEUtQxSBUziPamKrxPvcXaNCyOtJvHdqV737KxiuxoqsVDj4sdkRNMAIcbzoLx8ePDYY1jTcGnL3iqGG5UZ9bRcF6QukVoKB8EujQoGz",
	"public key": "-----BEGIN PGP PUBLIC KEY BLOCK-----\r\nVersion: OpenPGP.js v4.4.10\r\nComment: https://openpgpjs.org\r\n\r\nxjMEXNbPKRYJKwYBBAHaRw8BAQdAGL92DVvFdZHIXHf6+q7l1LLKEOFVN5zG\r\nuDrR5pzkwDfNDWxhdmFzdGVzdHVzZXLCdwQQFgoAHwUCXNbPKQYLCQcIAwIE\r\nFQgKAgMWAgECGQECGwMCHgEACgkQ/Oy6+Q198Iu39QD/QIIKbIlkjky3oVIE\r\nxIeKGXX2JQ9y2aYMfB7n/qsVXc8A/RhTp59fh6IOt9IvAiYHoT4HYuKsJw/e\r\npRddRA7vMMQFzjgEXNbPKRIKKwYBBAGXVQEFAQEHQEtrWoCfsZd7oFvJbdsn\r\nb4iwSrssZDbSuvUXZB03uHE6AwEIB8JhBBgWCAAJBQJc1s8pAhsMAAoJEPzs\r\nuvkNffCLKV0BAPW5bnQdsZ+DWPmtEirhBiA2iSi49WHm7I4l/nmiyRjiAP9J\r\nE8P3ac22P7EINu7qgThE1py3xhRrq12AMHwGpTMCAg==\r\n=UU3r\r\n-----END PGP PUBLIC KEY BLOCK-----\r\n"
}