{
	"cid": "rGCTVaD4ID8zd8I2zs0MNUwYRlRK7jMqCQ06CTWDxwEsovlNFyn42JRI1ZbXXrBiR62Ndv6nSuiaRw5u3WMRDJl2sb0Dbx6Z2WiiOjjBBMFPfiZBUXDxWngsehA07XqW",
	"profile": "profile_1556818185932.jpg",
	"description": "Random Dream Chat User change 6",
	"public key": "-----BEGIN PGP PUBLIC KEY BLOCK-----\r\nVersion: OpenPGP.js v4.4.10\r\nComment: https://openpgpjs.org\r\n\r\nxjMEXNbP0BYJKwYBBAHaRw8BAQdAXqLBZ0uAeTgFrdJvfHTrRKEVMcEQ2PSm\r\nSefaF20oRMvNCGxhdmFwaG94wncEEBYKAB8FAlzWz9AGCwkHCAMCBBUICgID\r\nFgIBAhkBAhsDAh4BAAoJEJaonpC3aef5mZcA/iM7eR9JqrxcLOAEpISOHr5q\r\n0yAw8aqjbirLm2TFkWpoAQD7W0462/ff5iZVhszZJqmbvlbVA+W7Z6WuZytc\r\n3PxNBM44BFzWz9ASCisGAQQBl1UBBQEBB0CKY4DMJciqpfy3Npz3ExBQaaeI\r\n2R0t/PMNGEwsOTeJZAMBCAfCYQQYFggACQUCXNbP0AIbDAAKCRCWqJ6Qt2nn\r\n+fzYAQCEtiTLA9WMXoZu5r8x/1CX+broKJmAaPoDG3yGXLS2KAD/U2ukVISE\r\na1W9sdJVSzyZ94ugDmYvAHeEbs8ZVBTHhgU=\r\n=xfqW\r\n-----END PGP PUBLIC KEY BLOCK-----\r\n"
}