4a51b-4f149
5a921-d5b46
8bd9f-6f87f
11d85-93718
b518e-b7bd5
36cde-6d435
61b4e-e713c
55e30-3dff7
868e8-33b54
970c7-12edb
564e9-5f16c
a3deb-8af6e
ac90d-eca7b
86a41-626ea
f8982-f2dbe
c4175-ef04d